…
Now let's take a look at each one of these files

```r
tb
```

```
## # A tibble: 3,850 x 18
##    country who_region  year    pop incidence_100k incidence_number
##    <chr>   <chr>      <dbl>  <dbl>          <dbl>            <dbl>
##  1 Afghan… EMR         2000 2.01e7            190            38000
##  2 Afghan… EMR         2001 2.10e7            189            40000
##  3 Afghan… EMR         2002 2.20e7            189            42000
##  4 Afghan… EMR         2003 2.31e7            189            44000
##  5 Afghan… EMR         2004 2.41e7            189            46000
##  6 Afghan… EMR         2005 2.51e7            189            47000
##  7 Afghan… EMR         2006 2.59e7            189            49000
##  8 Afghan… EMR         2007 2.66e7            189            50000
##  9 Afghan… EMR         2008 2.73e7            189            52000
## 10 Afghan… EMR         2009 2.80e7            189            53000
## # … with 3,840 more rows, and 12 more variables: hiv_percent <dbl>,
## #   hiv_incidence_100k <dbl>, hiv_number <dbl>, mort_nohiv_100k <dbl>,
## #   mort_nohiv_number <dbl>, mort_hiv_100k <dbl>, mort_hiv_number <dbl>,
## #   mort_100k <dbl>, mort_number <dbl>, case_fatality_ratio <dbl>,
## #   new_incidence_100k <dbl>, case_detection_percent <dbl>
```

```r
gm1
```

```
## # A tibble: 1,704 x 4
##    country     continent  year le_gdp             
##    <chr>       <chr>     <dbl> <chr>              
##  1 Afghanistan Asia       1952 28.801::779.4453145
##  2 Afghanistan Asia       1957 30.332::820.8530296
##  3 Afghanistan Asia       1962 31.997::853.10071  
##  4 Afghanistan Asia       1967 34.02::836.1971382 
##  5 Afghanistan Asia       1972 36.088::739.9811058
##  6 Afghanistan Asia       1977 38.438::786.11336  
##  7 Afghanistan Asia       1982 39.854::978.0114388
##  8 Afghanistan Asia       1987 40.822::852.3959448
##  9 Afghanistan Asia       1992 41.674::649.3413952
## 10 Afghanistan Asia       1997 41.763::635.341351 
## # … with 1,694 more rows
```

```r
gm2
```

```
## # A tibble: 142 x 14
##    country continent year.1952 year.1957 year.1962 year.1967 year.1972
##    <chr>   <chr>         <dbl>     <dbl>     <dbl>     <dbl>     <dbl>
##  1 Afghan… Asia        8425333   9240934  10267083  11537966  13079460
##  2 Albania Europe      1282697   1476505   1728137   1984060   2263554
##  3 Algeria Africa      9279525  10270856  11000948  12760499  14760787
##  4 Angola  Africa      4232095   4561361   4826015   5247469   5894858
##  5 Argent… Americas   17876956  19610538  21283783  22934225  24779799
##  6 Austra… Oceania     8691212   9712569  10794968  11872264  13177000
##  7 Austria Europe      6927772   6965860   7129864   7376998   7544201
##  8 Bahrain Asia         120447    138655    171863    202182    230800
##  9 Bangla… Asia       46886859  51365468  56839289  62821884  70759295
## 10 Belgium Europe      8730405   8989111   9218400   9556500   9709100
## # … with 132 more rows, and 7 more variables: year.1977 <dbl>,
## #   year.1982 <dbl>, year.1987 <dbl>, year.1992 <dbl>, year.1997 <dbl>,
## #   year.2002 <dbl>, year.2007 <dbl>
```
…
## arrange()

The `arrange()` function does what it sounds like. It takes a data frame or tbl and arranges (or sorts) by column(s) of interest. The first argument is the data, and subsequent arguments are columns to sort on. Use the `desc()` function to arrange by descending.

Let's use arrange to see tb in order of incidence_100k


```r
tb %>%
  arrange(incidence_100k)
```

```
## # A tibble: 3,850 x 18
##    country who_region  year    pop incidence_100k incidence_number
##    <chr>   <chr>      <dbl>  <dbl>          <dbl>            <dbl>
##  1 Barbad… AMR         2011 280601              0                0
##  2 Barbad… AMR         2015 284217              0                0
##  3 Barbad… AMR         2017 285719              0                0
##  4 Bermuda AMR         2000  64028              0                0
##  5 Bermuda AMR         2001  64323              0                0
##  6 Bermuda AMR         2002  64610              0                0
##  7 Bermuda AMR         2013  62771              0                0
##  8 Bermuda AMR         2014  62382              0                0
##  9 Bermuda AMR         2015  62003              0                0
## 10 Bonair… AMR         2010  20940              0                0
## # … with 3,840 more rows, and 12 more variables: hiv_percent <dbl>,
## #   hiv_incidence_100k <dbl>, hiv_number <dbl>, mort_nohiv_100k <dbl>,
## #   mort_nohiv_number <dbl>, mort_hiv_100k <dbl>, mort_hiv_number <dbl>,
## #   mort_100k <dbl>, mort_number <dbl>, case_fatality_ratio <dbl>,
## #   new_incidence_100k <dbl>, case_detection_percent <dbl>
```

What about by descending incidence so ones with high incidence are on top?


```r
tb %>%
  arrange(desc(incidence_100k))
```

```
## # A tibble: 3,850 x 18
##    country who_region  year    pop incidence_100k incidence_number
##    <chr>   <chr>      <dbl>  <dbl>          <dbl>            <dbl>
##  1 Lesotho AFR         2005 1.95e6           1280            25000
##  2 Lesotho AFR         2006 1.97e6           1280            25000
##  3 Lesotho AFR         2004 1.93e6           1260            24000
##  4 Lesotho AFR         2007 1.98e6           1260            25000
##  5 Lesotho AFR         2003 1.92e6           1220            23000
##  6 Lesotho AFR         2008 2.00e6           1220            24000
##  7 Lesotho AFR         2009 2.02e6           1180            24000
##  8 Lesotho AFR         2002 1.90e6           1160            22000
##  9 Lesotho AFR         2010 2.04e6           1120            23000
## 10 Lesotho AFR         2001 1.89e6           1080            20000
## # … with 3,840 more rows, and 12 more variables: hiv_percent <dbl>,
## #   hiv_incidence_100k <dbl>, hiv_number <dbl>, mort_nohiv_100k <dbl>,
## #   mort_nohiv_number <dbl>, mort_hiv_100k <dbl>, mort_hiv_number <dbl>,
## #   mort_100k <dbl>, mort_number <dbl>, case_fatality_ratio <dbl>,
## #   new_incidence_100k <dbl>, case_detection_percent <dbl>
```
…
If you want to satisfy *all* of multiple conditions, you can use the "and" operator, `&`. 

The "or" operator `|` (the pipe character, usually shift-backslash) will return a subset that meet *any* of the conditions (but not multiple).

For example, let's return rows where the who_region is Europe


```r
tb %>% 
  filter(who_region == "EUR")
```

```
## # A tibble: 967 x 18
##    country who_region  year    pop incidence_100k incidence_number
##    <chr>   <chr>      <dbl>  <dbl>          <dbl>            <dbl>
##  1 Albania EUR         2000 3.12e6             22              690
##  2 Albania EUR         2001 3.12e6             20              640
##  3 Albania EUR         2002 3.12e6             22              680
##  4 Albania EUR         2003 3.11e6             21              640
##  5 Albania EUR         2004 3.10e6             20              630
##  6 Albania EUR         2005 3.08e6             19              580
##  7 Albania EUR         2006 3.05e6             18              540
##  8 Albania EUR         2007 3.02e6             17              500
##  9 Albania EUR         2008 2.99e6             16              490
## 10 Albania EUR         2009 2.96e6             17              510
## # … with 957 more rows, and 12 more variables: hiv_percent <dbl>,
## #   hiv_incidence_100k <dbl>, hiv_number <dbl>, mort_nohiv_100k <dbl>,
## #   mort_nohiv_number <dbl>, mort_hiv_100k <dbl>, mort_hiv_number <dbl>,
## #   mort_100k <dbl>, mort_number <dbl>, case_fatality_ratio <dbl>,
## #   new_incidence_100k <dbl>, case_detection_percent <dbl>
```
  
Now let's see rows where TB incidence per 100k is greater than or equal to 750


```r
tb %>% 
  filter(incidence_100k >= 750)
```

```
## # A tibble: 58 x 18
##    country who_region  year    pop incidence_100k incidence_number
##    <chr>   <chr>      <dbl>  <dbl>          <dbl>            <dbl>
##  1 Botswa… AFR         2000 1.73e6            914            16000
##  2 Botswa… AFR         2001 1.75e6            888            16000
##  3 Botswa… AFR         2002 1.78e6            855            15000
##  4 Botswa… AFR         2003 1.80e6            816            15000
##  5 Botswa… AFR         2004 1.83e6            773            14000
##  6 Centra… AFR         2000 3.75e6           1070            40000
##  7 Centra… AFR         2001 3.83e6           1000            38000
##  8 Centra… AFR         2002 3.91e6            923            36000
##  9 Centra… AFR         2003 3.98e6            842            34000
## 10 Centra… AFR         2004 4.06e6            762            31000
## # … with 48 more rows, and 12 more variables: hiv_percent <dbl>,
## #   hiv_incidence_100k <dbl>, hiv_number <dbl>, mort_nohiv_100k <dbl>,
## #   mort_nohiv_number <dbl>, mort_hiv_100k <dbl>, mort_hiv_number <dbl>,
## #   mort_100k <dbl>, mort_number <dbl>, case_fatality_ratio <dbl>,
## #   new_incidence_100k <dbl>, case_detection_percent <dbl>
```

## select()

Whereas the `filter()` function allows you to return only certain _rows_ matching a condition, the `select()` function returns only certain _columns_. The first argument is the data, and subsequent arguments are the columns you want.

See only the country and year columns


```r
tb %>%
  select(country, year)
```

```
## # A tibble: 3,850 x 2
##    country      year
##    <chr>       <dbl>
##  1 Afghanistan  2000
##  2 Afghanistan  2001
##  3 Afghanistan  2002
##  4 Afghanistan  2003
##  5 Afghanistan  2004
##  6 Afghanistan  2005
##  7 Afghanistan  2006
##  8 Afghanistan  2007
##  9 Afghanistan  2008
## 10 Afghanistan  2009
## # … with 3,840 more rows
```

See all except the mort_100k column


```r
tb %>%
  select(-mort_100k)
```

```
## # A tibble: 3,850 x 17
##    country who_region  year    pop incidence_100k incidence_number
##    <chr>   <chr>      <dbl>  <dbl>          <dbl>            <dbl>
##  1 Afghan… EMR         2000 2.01e7            190            38000
##  2 Afghan… EMR         2001 2.10e7            189            40000
##  3 Afghan… EMR         2002 2.20e7            189            42000
##  4 Afghan… EMR         2003 2.31e7            189            44000
##  5 Afghan… EMR         2004 2.41e7            189            46000
##  6 Afghan… EMR         2005 2.51e7            189            47000
##  7 Afghan… EMR         2006 2.59e7            189            49000
##  8 Afghan… EMR         2007 2.66e7            189            50000
##  9 Afghan… EMR         2008 2.73e7            189            52000
## 10 Afghan… EMR         2009 2.80e7            189            53000
## # … with 3,840 more rows, and 11 more variables: hiv_percent <dbl>,
## #   hiv_incidence_100k <dbl>, hiv_number <dbl>, mort_nohiv_100k <dbl>,
## #   mort_nohiv_number <dbl>, mort_hiv_100k <dbl>, mort_hiv_number <dbl>,
## #   mort_number <dbl>, case_fatality_ratio <dbl>,
## #   new_incidence_100k <dbl>, case_detection_percent <dbl>
```

Remove all columns containing "mort"


```r
tb %>%
  select(-contains("mort"))
```

```
## # A tibble: 3,850 x 12
##    country who_region  year    pop incidence_100k incidence_number
##    <chr>   <chr>      <dbl>  <dbl>          <dbl>            <dbl>
##  1 Afghan… EMR         2000 2.01e7            190            38000
##  2 Afghan… EMR         2001 2.10e7            189            40000
##  3 Afghan… EMR         2002 2.20e7            189            42000
##  4 Afghan… EMR         2003 2.31e7            189            44000
##  5 Afghan… EMR         2004 2.41e7            189            46000
##  6 Afghan… EMR         2005 2.51e7            189            47000
##  7 Afghan… EMR         2006 2.59e7            189            49000
##  8 Afghan… EMR         2007 2.66e7            189            50000
##  9 Afghan… EMR         2008 2.73e7            189            52000
## 10 Afghan… EMR         2009 2.80e7            189            53000
## # … with 3,840 more rows, and 6 more variables: hiv_percent <dbl>,
## #   hiv_incidence_100k <dbl>, hiv_number <dbl>, case_fatality_ratio <dbl>,
## #   new_incidence_100k <dbl>, case_detection_percent <dbl>
```

# dplyr in action

Let's filter for where the incidence per 100k is greater than or equal to 750 then just select the country, year, and incidence columns


```r
tb %>% 
  filter(incidence_100k >= 750) %>% 
  select(country, year, incidence_100k)
```

```
## # A tibble: 58 x 3
##    country                   year incidence_100k
##    <chr>                    <dbl>          <dbl>
##  1 Botswana                  2000            914
##  2 Botswana                  2001            888
##  3 Botswana                  2002            855
##  4 Botswana                  2003            816
##  5 Botswana                  2004            773
##  6 Central African Republic  2000           1070
##  7 Central African Republic  2001           1000
##  8 Central African Republic  2002            923
##  9 Central African Republic  2003            842
## 10 Central African Republic  2004            762
## # … with 48 more rows
```
…
3. Within the South East Asia who_region, which rows have incidence_100K > 500?


```r
tb %>% 
  filter(who_region == "SEA" & incidence_100k > 300)
```

```
## # A tibble: 70 x 18
##    country who_region  year    pop incidence_100k incidence_number
##    <chr>   <chr>      <dbl>  <dbl>          <dbl>            <dbl>
##  1 Democr… SEA         2000 2.29e7            513           118000
##  2 Democr… SEA         2001 2.31e7            513           119000
##  3 Democr… SEA         2002 2.33e7            513           120000
##  4 Democr… SEA         2003 2.35e7            513           121000
##  5 Democr… SEA         2004 2.37e7            513           122000
##  6 Democr… SEA         2005 2.39e7            513           123000
##  7 Democr… SEA         2006 2.41e7            513           123000
##  8 Democr… SEA         2007 2.42e7            513           124000
##  9 Democr… SEA         2008 2.43e7            513           125000
## 10 Democr… SEA         2009 2.45e7            513           125000
## # … with 60 more rows, and 12 more variables: hiv_percent <dbl>,
## #   hiv_incidence_100k <dbl>, hiv_number <dbl>, mort_nohiv_100k <dbl>,
## #   mort_nohiv_number <dbl>, mort_hiv_100k <dbl>, mort_hiv_number <dbl>,
## #   mort_100k <dbl>, mort_number <dbl>, case_fatality_ratio <dbl>,
## #   new_incidence_100k <dbl>, case_detection_percent <dbl>
```
…
In looking at the output of the gm1 dataset, we have some work to do to tidy the data for analysis. 

The main problem I see is that there are multiple pieces of data encoded into the column called `le_gdp`. Luckily, the 2 pieces of data are each separated neatly by `::`. Let's use the separate function from the tidyr package to create 2 new columns from the original `le_gdp` column.


```r
# take a look at the separate function
?separate

gm1 %>% 
  separate(le_gdp, into = c("lifeExp", "gdpPerCap"), sep = "::")
```

```
## # A tibble: 1,704 x 5
##    country     continent  year lifeExp gdpPerCap  
##    <chr>       <chr>     <dbl> <chr>   <chr>      
##  1 Afghanistan Asia       1952 28.801  779.4453145
##  2 Afghanistan Asia       1957 30.332  820.8530296
##  3 Afghanistan Asia       1962 31.997  853.10071  
##  4 Afghanistan Asia       1967 34.02   836.1971382
##  5 Afghanistan Asia       1972 36.088  739.9811058
##  6 Afghanistan Asia       1977 38.438  786.11336  
##  7 Afghanistan Asia       1982 39.854  978.0114388
##  8 Afghanistan Asia       1987 40.822  852.3959448
##  9 Afghanistan Asia       1992 41.674  649.3413952
## 10 Afghanistan Asia       1997 41.763  635.341351 
## # … with 1,694 more rows
```

If the separator was not as neat as this, you can input any [regular expression](https://en.wikipedia.org/wiki/Regular_expression) into the separator argument. We will do a bit more today with regular expressions, but also see Further Resources at the bottom of the script for more about regular expressions.

Notice that our original variable `le_gdp` no longer appears. This change is good, but so far it is only in the console. The originial dataframe is still unchanged. 


```r
gm1
```

```
## # A tibble: 1,704 x 4
##    country     continent  year le_gdp             
##    <chr>       <chr>     <dbl> <chr>              
##  1 Afghanistan Asia       1952 28.801::779.4453145
##  2 Afghanistan Asia       1957 30.332::820.8530296
##  3 Afghanistan Asia       1962 31.997::853.10071  
##  4 Afghanistan Asia       1967 34.02::836.1971382 
##  5 Afghanistan Asia       1972 36.088::739.9811058
##  6 Afghanistan Asia       1977 38.438::786.11336  
##  7 Afghanistan Asia       1982 39.854::978.0114388
##  8 Afghanistan Asia       1987 40.822::852.3959448
##  9 Afghanistan Asia       1992 41.674::649.3413952
## 10 Afghanistan Asia       1997 41.763::635.341351 
## # … with 1,694 more rows
```
…
Just like the other dplyr functions, `mutate()` takes a dataframe as the first argument and then the name of the new variable followed by a function to create the new variable.

To clean up strings, the stringr package has several excellent functions. Today, we'll use `str_replace()` to remove the "year." before the numeric year.

`str_replace()` takes the regular expression to find followed by the replacement. I think of it like Find and Replace in Microsoft Word


```r
gm2 %>%
  mutate(year = str_replace(year, "year.", ""))
```

```
## # A tibble: 1,704 x 4
##    country     continent year       pop
##    <chr>       <chr>     <chr>    <dbl>
##  1 Afghanistan Asia      1952   8425333
##  2 Albania     Europe    1952   1282697
##  3 Algeria     Africa    1952   9279525
##  4 Angola      Africa    1952   4232095
##  5 Argentina   Americas  1952  17876956
##  6 Australia   Oceania   1952   8691212
##  7 Austria     Europe    1952   6927772
##  8 Bahrain     Asia      1952    120447
##  9 Bangladesh  Asia      1952  46886859
## 10 Belgium     Europe    1952   8730405
## # … with 1,694 more rows
```

There is still a slight problem with the year column. Can you spot it?

Great, let's fix it using `mutate()`


```r
gm2 %>%
  mutate(year = str_replace(year, "year.", "")) %>% 
  mutate(year = as.numeric(year))
```

```
## # A tibble: 1,704 x 4
##    country     continent  year      pop
##    <chr>       <chr>     <dbl>    <dbl>
##  1 Afghanistan Asia       1952  8425333
##  2 Albania     Europe     1952  1282697
##  3 Algeria     Africa     1952  9279525
##  4 Angola      Africa     1952  4232095
##  5 Argentina   Americas   1952 17876956
##  6 Australia   Oceania    1952  8691212
##  7 Austria     Europe     1952  6927772
##  8 Bahrain     Asia       1952   120447
##  9 Bangladesh  Asia       1952 46886859
## 10 Belgium     Europe     1952  8730405
## # … with 1,694 more rows
```
…
